module gitlab.com/jc88/gopher

go 1.18

require cloud.google.com/go/pubsub v1.19.0

require golang.org/x/xerrors v0.0.0-20200804184101-5ec99f83aff1 // indirect; indirects

require (
	cloud.google.com/go v0.100.2 // indirect
	cloud.google.com/go/compute v1.3.0 // indirect
	cloud.google.com/go/firestore v1.6.1
	cloud.google.com/go/iam v0.1.0 // indirect
	cloud.google.com/go/vision v1.2.0
	github.com/golang/groupcache v0.0.0-20200121045136-8c9f03a8e57e // indirect
	github.com/golang/protobuf v1.5.2 // indirect
	github.com/google/go-cmp v0.5.7 // indirect
	github.com/googleapis/gax-go/v2 v2.1.1 // indirect
	github.com/pkg/errors v0.9.1
	go.opencensus.io v0.23.0 // indirect
	golang.org/x/net v0.0.0-20220127200216-cd36cc0744dd // indirect
	golang.org/x/oauth2 v0.0.0-20211104180415-d3ed0bb246c8 // indirect
	golang.org/x/sync v0.0.0-20210220032951-036812b2e83c // indirect
	golang.org/x/sys v0.0.0-20220209214540-3681064d5158 // indirect
	golang.org/x/text v0.3.7 // indirect
	google.golang.org/api v0.70.0 // indirect
	google.golang.org/appengine v1.6.7 // indirect
	google.golang.org/genproto v0.0.0-20220222213610-43724f9ea8cf
	google.golang.org/grpc v1.44.0 // indirect
	google.golang.org/protobuf v1.27.1 // indirect
)
